[gd_scene load_steps=4 format=2]

[ext_resource path="res://title_screen/fonts/ARCADECLASSIC.TTF" type="FontFile" id=1]

[sub_resource type="FontFile" id=3]

[sub_resource type="FontFile" id=2]
size = 73
font_data = ExtResource( 1 )

[node name="Button" type="Button"]
offset_left = -21.0
offset_top = 14.0
offset_right = 271.0
offset_bottom = 93.0
theme_override_fonts/font = SubResource( 3 )
flat = true
__meta__ = {
"_edit_use_anchors_": false,
"_editor_description_": ""
}

[node name="Label" type="Label" parent="."]
anchor_right = 1.0
anchor_bottom = 1.0
offset_left = 15.0
offset_top = 12.0
offset_right = 83.0
offset_bottom = 67.0
custom_minimum_size = Vector2( 360, 60 )
theme_override_fonts/font = SubResource( 2 )
theme_override_colors/font_shadow_color = Color( 0, 0, 0, 1 )
theme_override_constants/shadow_offset_x = 0
theme_override_constants/shadow_offset_y = 5
text = "Easy"
uppercase = true
__meta__ = {
"_editor_description_": ""
}
