[gd_scene load_steps=3 format=2]

[ext_resource path="res://02_farm/maptungna.tscn" type="PackedScene" id=1]
[ext_resource path="res://Ufo.tscn" type="PackedScene" id=2]

[node name="Node2D" type="Node2D"]

[node name="Node2D" parent="." instance=ExtResource( 1 )]
position = Vector2( 9.13539, 38.8157 )

[node name="cha" parent="Node2D" instance=ExtResource( 2 )]
position = Vector2( 527.305, 255.311 )
scale = Vector2( 0.5, 0.5 )
