[gd_scene load_steps=6 format=2]

[ext_resource path="res://title_screen/game/return_to_title.gd" type="Script" id=1]
[ext_resource path="res://title_screen/fonts/bangkok-display_regular_v1-0.ttf" type="FontFile" id=2]
[ext_resource path="res://title_screen/fonts/bangkok_regular-italic_v1-0.ttf" type="FontFile" id=3]

[sub_resource type="FontFile" id=1]
size = 60
font_data = ExtResource( 2 )

[sub_resource type="FontFile" id=2]
size = 30
font_data = ExtResource( 3 )

[node name="NewGame" type="Control"]
anchor_right = 1.0
anchor_bottom = 1.0
script = ExtResource( 1 )

[node name="CenterContainer" type="CenterContainer" parent="."]
anchor_right = 1.0
anchor_bottom = 1.0

[node name="VBoxContainer" type="VBoxContainer" parent="CenterContainer"]
offset_left = 470.0
offset_top = 310.0
offset_right = 810.0
offset_bottom = 410.0

[node name="Label" type="Label" parent="CenterContainer/VBoxContainer"]
offset_right = 340.0
offset_bottom = 60.0
theme_override_fonts/font = SubResource( 1 )
theme_override_colors/font_shadow_color = Color( 1, 0.592157, 0, 1 )
theme_override_constants/shadow_offset_x = 0
theme_override_constants/shadow_offset_y = 5
text = "NewGame Scene"

[node name="Button" type="Button" parent="CenterContainer/VBoxContainer"]
offset_top = 64.0
offset_right = 340.0
offset_bottom = 100.0
pivot_offset = Vector2( -970, -212 )
theme_override_fonts/font = SubResource( 2 )
text = "Back"
[connection signal="pressed" from="CenterContainer/VBoxContainer/Button" to="." method="_on_Button_pressed"]
