[gd_scene load_steps=3 format=2]

[ext_resource path="res://02_farm/maptungna_h.tscn" type="PackedScene" id=1]
[ext_resource path="res://Tank.tscn" type="PackedScene" id=2]

[node name="Node2D" type="Node2D"]

[node name="Node2D" parent="." instance=ExtResource( 1 )]
position = Vector2( -3.58203, 0.725647 )

[node name="cha" parent="Node2D" instance=ExtResource( 2 )]
position = Vector2( 403.698, 297.003 )
scale = Vector2( 0.8, 0.8 )
