[gd_scene load_steps=3 format=2]

[ext_resource path="res://title_screen/buttons/Exit.tscn" type="PackedScene" id=1]

[sub_resource type="FontFile" id=1]

[node name="NewGameButton" instance=ExtResource( 1 )]
theme_override_fonts/font = SubResource( 1 )

[node name="Label" parent="." index="0"]
offset_left = 15.0
offset_top = 12.0
offset_right = 15.0
offset_bottom = 67.0
theme_override_colors/font_shadow_color = Color( 0, 0, 0, 1 )
text = "Easy"
