[gd_scene load_steps=5 format=2]

[ext_resource path="res://addons/dialogic/Editor/Events/Parts/ResourcePickers/Characters/PortraitPicker.tscn" type="PackedScene" id=1]
[ext_resource path="res://addons/dialogic/Editor/Events/Parts/ResourcePickers/Characters/CharacterPicker.tscn" type="PackedScene" id=2]
[ext_resource path="res://addons/dialogic/Editor/Events/Parts/ResourcePickers/Characters/EventPart_CharacterAndPortraitPicker.gd" type="Script" id=3]
[ext_resource path="res://addons/dialogic/Editor/Events/Parts/ResourcePickers/Definitions/DefinitionPicker.tscn" type="PackedScene" id=4]

[node name="CharacterAndPortraitPicker" type="VBoxContainer"]
offset_right = 177.0
offset_bottom = 22.0
script = ExtResource( 3 )
__meta__ = {
"_edit_use_anchors_": false
}

[node name="HBox" type="HBoxContainer" parent="."]
offset_right = 219.0
offset_bottom = 30.0
size_flags_vertical = 3

[node name="CharacterPicker" parent="HBox" instance=ExtResource( 2 )]
offset_right = 115.0
offset_bottom = 30.0

[node name="PortraitPicker" parent="HBox" instance=ExtResource( 1 )]
offset_left = 119.0
offset_right = 219.0

[node name="DefinitionPicker" parent="HBox" instance=ExtResource( 4 )]
visible = false
offset_left = 222.0
offset_right = 354.0
