[gd_scene load_steps=6 format=2]

[ext_resource path="res://Item/BOM.tres" type="Animation" id=1]
[ext_resource path="res://Item/Bom.png" type="Texture2D" id=2]
[ext_resource path="res://Item/BOM.gd" type="Script" id=3]
[ext_resource path="res://soundsandmusic/bomm.ogg" type="AudioStream" id=4]

[sub_resource type="CircleShape2D" id=1]
radius = 6.67621

[node name="Bomb" type="Node2D"]
position = Vector2( 49.9468, -247.355 )
script = ExtResource( 3 )

[node name="AnimationPlayer" type="AnimationPlayer" parent="."]
anims/BOM = ExtResource( 1 )

[node name="Bomb" type="Sprite2D" parent="."]
position = Vector2( 471.261, 438.395 )
scale = Vector2( 0.5, 0.5 )
texture = ExtResource( 2 )

[node name="bomb5555" type="Area2D" parent="Bomb"]
position = Vector2( 0, -210.422 )
scale = Vector2( 0.558717, 1.07857 )

[node name="CollisionShape2D" type="CollisionShape2D" parent="Bomb/bomb5555"]
position = Vector2( -32.772, 272.246 )
scale = Vector2( -115.308, 56.6669 )
shape = SubResource( 1 )

[node name="Soundbomb" type="AudioStreamPlayer" parent="."]
stream = ExtResource( 4 )
__meta__ = {
"_editor_description_": ""
}

[connection signal="area_entered" from="Bomb/bomb5555" to="." method="_on_bomb_area_entered"]
[connection signal="body_entered" from="Bomb/bomb5555" to="." method="_on_bomb_body_entered"]
