[gd_scene load_steps=5 format=2]

[ext_resource path="res://addons/dialogic/Images/Event Icons/Main Icons/set-theme.svg" type="Texture2D" id=1]
[ext_resource path="res://addons/dialogic/Editor/Events/Templates/EventTemplate.tscn" type="PackedScene" id=2]
[ext_resource path="res://addons/dialogic/Editor/Events/styles/SetTheme.tres" type="StyleBox" id=3]
[ext_resource path="res://addons/dialogic/Editor/Events/Parts/ResourcePickers/Themes/ThemePicker.tscn" type="PackedScene" id=4]

[node name="SetTheme" instance=ExtResource( 2 )]
event_name = "Set Theme"
event_data = {
"event_id": "dialogic_024",
"set_theme": ""
}
event_icon = ExtResource( 1 )
event_style = ExtResource( 3 )
header_scene = ExtResource( 4 )

[node name="PanelContainer" parent="." index="1"]
theme_override_styles/panel = ExtResource( 3 )

[node name="SelectedStyle" parent="PanelContainer" index="0"]
modulate = Color( 0, 0, 0, 1 )

[node name="IconTexture" parent="PanelContainer/MarginContainer/VBoxContainer/Header" index="1"]
offset_right = 32.0
texture = ExtResource( 1 )

[node name="TitleLabel" parent="PanelContainer/MarginContainer/VBoxContainer/Header" index="2"]
offset_left = 42.0
offset_right = 108.0
text = "Set theme"

[node name="Content" parent="PanelContainer/MarginContainer/VBoxContainer/Header" index="3"]
offset_left = 118.0
offset_right = 235.0

[node name="Spacer" parent="PanelContainer/MarginContainer/VBoxContainer/Header" index="5"]
offset_left = 245.0

[node name="OptionsControl" parent="PanelContainer/MarginContainer/VBoxContainer/Header" index="7"]
items = [ "Move Up", null, 0, false, false, 0, 0, null, "", false, "Move Down", null, 0, false, false, 1, 0, null, "", false, "", null, 0, false, false, 2, 0, null, "", false, "Remove", null, 0, false, false, 3, 0, null, "", false ]
