; Engine configuration file.
; It's best edited using the editor UI and not directly,
; since the parameters that go here are not all obvious.
;
; Format:
;   [section] ; section goes between []
;   param=value ; assign values to parameters

config_version=5

[application]

config/name="Game"
run/main_scene="res://title_screen/TitleScreen.tscn"
config/features=PackedStringArray("4.2")
config/icon="res://icon.png"

[autoload]

Globals="*res://bullet/Globals.gd"

[layer_names]

2d_physics/layer_1="humvee"
2d_physics/layer_2="enemy"
2d_physics/layer_3="ground"
2d_physics/layer_4="bullethumvee"
2d_physics/layer_5="platforms"
2d_physics/layer_6=false

[physics]

common/enable_pause_aware_picking=true

[rendering]

environment/defaults/default_environment="res://default_env.tres"
quality/driver/driver_name="GLES2"
vram_compression/import_etc=true
